module gitlab.com/gitlab-com/content-sites/handbook

go 1.19

require github.com/google/docsy v0.10.0

require (
	github.com/google/docsy/dependencies v0.7.2 // indirect
	gitlab.com/gitlab-com/content-sites/docsy-gitlab v0.3.33 // indirect
)
